Project 1: Wrangling, Exploration, Visualization
…
nrow(spreadspoke_scores)

## [1] 2912

standings %>% group_by(team) %>% n_distinct()  # there are 32 teams and 10 seasons this makes sense even though at first I thought it should be 32 however each season has different data 

## [1] 320

spreadspoke_scores %>% group_by(team) %>% n_distinct()  ### every game is different so each is unique 

## [1] 2912

standings %>% group_by(team) %>% count()

## # A tibble: 35 x 2
## # Groups:   team [35]
##    team      n
##    <chr> <int>
##  1 ARI      10
##  2 ATL      10
##  3 BAL      10
##  4 BUF      10
##  5 CAR      10
##  6 CHI      10
##  7 CIN      10
##  8 CLE      10
##  9 DAL      10
## 10 DEN      10
## #  with 25 more rows

spreadspoke_scores %>% group_by(team) %>% count()

## # A tibble: 34 x 2
## # Groups:   team [34]
##    team      n
##    <chr> <int>
##  1 ARI      88
##  2 ATL      91
##  3 BAL      91
##  4 BUF      89
##  5 CAR      92
##  6 CHI      88
##  7 CIN      90
##  8 CLE      88
##  9 DAL      90
## 10 DEN      97
## #  with 24 more rows
…
